{
  "main.js": "./static/js/main.f7e06780.chunk.js",
  "main.js.map": "./static/js/main.f7e06780.chunk.js.map",
  "static/css/1.c510953a.chunk.css": "./static/css/1.c510953a.chunk.css",
  "static/js/1.ca0dd488.chunk.js": "./static/js/1.ca0dd488.chunk.js",
  "static/js/1.ca0dd488.chunk.js.map": "./static/js/1.ca0dd488.chunk.js.map",
  "runtime~main.js": "./static/js/runtime~main.4a686d48.js",
  "runtime~main.js.map": "./static/js/runtime~main.4a686d48.js.map",
  "static/css/1.c510953a.chunk.css.map": "./static/css/1.c510953a.chunk.css.map",
  "index.html": "./index.html",
  "precache-manifest.caa742dd111efb29655961ff1675ae1a.js": "./precache-manifest.caa742dd111efb29655961ff1675ae1a.js",
  "service-worker.js": "./service-worker.js"
}